<?xml version="1.0" encoding="utf-8"?>
<!-- Generator: Adobe Illustrator 23.0.1, SVG Export Plug-In . SVG Version: 6.00 Build 0)  -->
<svg version="1.1" id="Capa_1" xmlns="http://www.w3.org/2000/svg" xmlns:xlink="http://www.w3.org/1999/xlink" x="0px" y="0px"
	 viewBox="0 0 416.4 416.4" style="enable-background:new 0 0 416.4 416.4;" xml:space="preserve">
<style type="text/css">
	.st0{fill:#FFFFFF;}
	.st1{fill:#648D38;}
	.st2{fill:#2F3136;}
</style>
<circle class="st0" cx="208.2" cy="208.2" r="175"/>
<path class="st1" d="M208.2,61C127,61,61,127.1,61,208.2c0,81.2,66,147.2,147.2,147.2s147.2-66,147.2-147.2
	C355.4,127.1,289.4,61,208.2,61z M208.2,314.3c-58.5,0-106.1-47.6-106.1-106.1c0-58.5,47.6-106.1,106.1-106.1
	c58.5,0,106.1,47.6,106.1,106.1C314.3,266.7,266.7,314.3,208.2,314.3z"/>
<path class="st2" d="M208.2,409C97.5,409,7.4,318.9,7.4,208.2C7.4,97.5,97.5,7.4,208.2,7.4C318.9,7.4,409,97.5,409,208.2
	C409,318.9,318.9,409,208.2,409z M208.2,36.8c-94.5,0-171.4,76.9-171.4,171.4s76.9,171.4,171.4,171.4s171.4-76.9,171.4-171.4
	S302.7,36.8,208.2,36.8z"/>
</svg>
